21
http://www.w3.org/2002/07/owl#inverseOf	0
http://www.w3.org/2002/07/owl#unionOf	1
http://www.w3.org/2002/07/owl#equivalentClass	2
http://www.w3.org/2002/07/owl#someValuesFrom	3
http://www.w3.org/2000/01/rdf-schema#domain	4
http://www.w3.org/2000/01/rdf-schema#subClassOf	5
http://www.w3.org/2002/07/owl#onProperty	6
http://www.w3.org/2002/07/owl#members	7
http://www.w3.org/2002/07/owl#intersectionOf	8
http://www.w3.org/2002/07/owl#disjointWith	9
http://www.w3.org/2002/07/owl#complementOf	10
http://www.w3.org/2002/07/owl#versionIRI	11
http://www.w3.org/2002/07/owl#annotatedProperty	12
http://www.w3.org/1999/02/22-rdf-syntax-ns#rest	13
http://www.w3.org/2002/07/owl#allValuesFrom	14
http://www.w3.org/1999/02/22-rdf-syntax-ns#first	15
http://www.w3.org/2002/07/owl#onClass	16
http://www.w3.org/2002/07/owl#minQualifiedCardinality	17
http://www.w3.org/2000/01/rdf-schema#range	18
http://www.w3.org/1999/02/22-rdf-syntax-ns#type	19
http://www.w3.org/2000/01/rdf-schema#subPropertyOf	20
